{
  '251022': [
    [
      77,
      84
    ]
  ],
  '251023': [
    [
      1,
      37
    ]
  ],
  '251024': [
    [
      1,
      86
    ]
  ],
  '251025': [
    [
      1,
      71
    ],
    [
      103,
      103
    ]
  ],
  '251026': [
    [
      1,
      6
    ],
    [
      77,
      77
    ]
  ],
  '251027': [
    [
      1,
      125
    ]
  ],
  '251028': [
    [
      1,
      28
    ],
    [
      141,
      141
    ]
  ],
  '251244': [
    [
      80,
      156
    ],
    [
      158,
      446
    ]
  ],
  '251251': [
    [
      1,
      175
    ]
  ],
  '251252': [
    [
      1,
      578
    ]
  ],
  '251521': [
    [
      36,
      55
    ]
  ],
  '251522': [
    [
      1,
      10
    ],
    [
      57,
      57
    ]
  ],
  '251523': [
    [
      1,
      8
    ],
    [
      19,
      19
    ]
  ],
  '251548': [
    [
      60,
      91
    ]
  ],
  '251559': [
    [
      43,
      52
    ],
    [
      55,
      64
    ],
    [
      67,
      72
    ]
  ],
  '251560': [
    [
      1,
      5
    ],
    [
      7,
      10
    ],
    [
      84,
      84
    ]
  ],
  '251561': [
    [
      1,
      125
    ]
  ],
  '251562': [
    [
      1,
      439
    ],
    [
      443,
      710
    ]
  ]
}
